…
### `select()` examples
Select only the `year`, `month`, and `day` columns:

```r
select(flights,year, month, day)
```

```
## # A tibble: 336,776 × 3
##     year month   day
##    <int> <int> <int>
## 1   2013     1     1
## 2   2013     1     1
## 3   2013     1     1
## 4   2013     1     1
## 5   2013     1     1
## 6   2013     1     1
## 7   2013     1     1
## 8   2013     1     1
## 9   2013     1     1
## 10  2013     1     1
## # ... with 336,766 more rows
```

### `select()` examples

Select everything _except_ the `tailnum`:

```r
select(flights,-tailnum)
```

```
## # A tibble: 336,776 × 18
##     year month   day dep_time sched_dep_time
##    <int> <int> <int>    <int>          <int>
## 1   2013     1     1      517            515
## 2   2013     1     1      533            529
## 3   2013     1     1      542            540
## 4   2013     1     1      544            545
## 5   2013     1     1      554            600
## 6   2013     1     1      554            558
## 7   2013     1     1      555            600
## 8   2013     1     1      557            600
## 9   2013     1     1      557            600
## 10  2013     1     1      558            600
## # ... with 336,766 more rows, and 13 more
## #   variables: dep_delay <dbl>, arr_time <int>,
## #   sched_arr_time <int>, arr_delay <dbl>,
## #   carrier <chr>, flight <int>, origin <chr>,
## #   dest <chr>, air_time <dbl>, distance <dbl>,
## #   hour <dbl>, minute <dbl>, time_hour <dttm>
```

Select all columns containing the string `"time"`:

```r
select(flights,contains("time"))
```

```
## # A tibble: 336,776 × 6
##    dep_time sched_dep_time arr_time
##       <int>          <int>    <int>
## 1       517            515      830
## 2       533            529      850
## 3       542            540      923
## 4       544            545     1004
## 5       554            600      812
## 6       554            558      740
## 7       555            600      913
## 8       557            600      709
## 9       557            600      838
## 10      558            600      753
## # ... with 336,766 more rows, and 3 more
## #   variables: sched_arr_time <int>,
## #   air_time <dbl>, time_hour <dttm>
```

You can also rename columns with `select()`

```r
select(flights,year,carrier,destination=dest)
```

```
## # A tibble: 336,776 × 3
##     year carrier destination
##    <int>   <chr>       <chr>
## 1   2013      UA         IAH
## 2   2013      UA         IAH
## 3   2013      AA         MIA
## 4   2013      B6         BQN
## 5   2013      DL         ATL
## 6   2013      UA         ORD
## 7   2013      B6         FLL
## 8   2013      EV         IAD
## 9   2013      B6         MCO
## 10  2013      AA         ORD
## # ... with 336,766 more rows
```

## `filter()` observations

Filter all flights that departed on on January 1st:


```r
filter(flights, month == 1, day == 1)
```

```
## # A tibble: 842 × 19
##     year month   day dep_time sched_dep_time
##    <int> <int> <int>    <int>          <int>
## 1   2013     1     1      517            515
## 2   2013     1     1      533            529
## 3   2013     1     1      542            540
## 4   2013     1     1      544            545
## 5   2013     1     1      554            600
## 6   2013     1     1      554            558
## 7   2013     1     1      555            600
## 8   2013     1     1      557            600
## 9   2013     1     1      557            600
## 10  2013     1     1      558            600
## # ... with 832 more rows, and 14 more variables:
## #   dep_delay <dbl>, arr_time <int>,
## #   sched_arr_time <int>, arr_delay <dbl>,
## #   carrier <chr>, flight <int>, tailnum <chr>,
## #   origin <chr>, dest <chr>, air_time <dbl>,
## #   distance <dbl>, hour <dbl>, minute <dbl>,
## #   time_hour <dttm>
```


## _Base_ R method
This is equivalent to the more verbose code in base R:


```r
flights[flights$month == 1 & flights$day == 1, ]
```

```
## # A tibble: 842 × 19
##     year month   day dep_time sched_dep_time
##    <int> <int> <int>    <int>          <int>
## 1   2013     1     1      517            515
## 2   2013     1     1      533            529
## 3   2013     1     1      542            540
## 4   2013     1     1      544            545
## 5   2013     1     1      554            600
## 6   2013     1     1      554            558
## 7   2013     1     1      555            600
## 8   2013     1     1      557            600
## 9   2013     1     1      557            600
## 10  2013     1     1      558            600
## # ... with 832 more rows, and 14 more variables:
## #   dep_delay <dbl>, arr_time <int>,
## #   sched_arr_time <int>, arr_delay <dbl>,
## #   carrier <chr>, flight <int>, tailnum <chr>,
## #   origin <chr>, dest <chr>, air_time <dbl>,
## #   distance <dbl>, hour <dbl>, minute <dbl>,
## #   time_hour <dttm>
```
…
<div class="well">
Filter the `flights` data set to keep only evening flights (`dep_time` after 1600) in June.

<button data-toggle="collapse" class="btn btn-primary btn-sm round" data-target="#demo1">Show Solution</button>
<div id="demo1" class="collapse">


```r
filter(flights,dep_time>1600,month==6)
```

```
## # A tibble: 10,117 × 19
##     year month   day dep_time sched_dep_time
##    <int> <int> <int>    <int>          <int>
## 1   2013     6     1     1602           1505
## 2   2013     6     1     1602           1605
## 3   2013     6     1     1602           1610
## 4   2013     6     1     1603           1610
## 5   2013     6     1     1603           1545
## 6   2013     6     1     1605           1608
## 7   2013     6     1     1605           1600
## 8   2013     6     1     1605           1614
## 9   2013     6     1     1608           1600
## 10  2013     6     1     1609           1615
## # ... with 10,107 more rows, and 14 more
## #   variables: dep_delay <dbl>, arr_time <int>,
## #   sched_arr_time <int>, arr_delay <dbl>,
## #   carrier <chr>, flight <int>, tailnum <chr>,
## #   origin <chr>, dest <chr>, air_time <dbl>,
## #   distance <dbl>, hour <dbl>, minute <dbl>,
## #   time_hour <dttm>
```
…
## Other _boolean_ expressions
`filter()` is similar to `subset()` except it handles any number of filtering conditions joined together with `&`. 

You can also use other boolean operators, such as _OR_ ("|"):

```r
filter(flights, month == 1 | month == 2)
```

```
## # A tibble: 51,955 × 19
##     year month   day dep_time sched_dep_time
##    <int> <int> <int>    <int>          <int>
## 1   2013     1     1      517            515
## 2   2013     1     1      533            529
## 3   2013     1     1      542            540
## 4   2013     1     1      544            545
## 5   2013     1     1      554            600
## 6   2013     1     1      554            558
## 7   2013     1     1      555            600
## 8   2013     1     1      557            600
## 9   2013     1     1      557            600
## 10  2013     1     1      558            600
## # ... with 51,945 more rows, and 14 more
## #   variables: dep_delay <dbl>, arr_time <int>,
## #   sched_arr_time <int>, arr_delay <dbl>,
## #   carrier <chr>, flight <int>, tailnum <chr>,
## #   origin <chr>, dest <chr>, air_time <dbl>,
## #   distance <dbl>, hour <dbl>, minute <dbl>,
## #   time_hour <dttm>
```

<div class="well">
Filter the `flights` data set to keep only 'redeye' flights where the departure time
(`dep_time`) is "after" the arrival time (`arr_time`), indicating it arrived the next day:

<button data-toggle="collapse" class="btn btn-primary btn-sm round" data-target="#demo2">Show Solution</button>
<div id="demo2" class="collapse"> <br>


```r
filter(flights,dep_time>arr_time)
```

```
## # A tibble: 10,633 × 19
##     year month   day dep_time sched_dep_time
##    <int> <int> <int>    <int>          <int>
## 1   2013     1     1     1929           1920
## 2   2013     1     1     1939           1840
## 3   2013     1     1     2058           2100
## 4   2013     1     1     2102           2108
## 5   2013     1     1     2108           2057
## 6   2013     1     1     2120           2130
## 7   2013     1     1     2121           2040
## 8   2013     1     1     2128           2135
## 9   2013     1     1     2134           2045
## 10  2013     1     1     2136           2145
## # ... with 10,623 more rows, and 14 more
## #   variables: dep_delay <dbl>, arr_time <int>,
## #   sched_arr_time <int>, arr_delay <dbl>,
## #   carrier <chr>, flight <int>, tailnum <chr>,
## #   origin <chr>, dest <chr>, air_time <dbl>,
## #   distance <dbl>, hour <dbl>, minute <dbl>,
## #   time_hour <dttm>
```
…
## `arrange()` rows

`arrange()` is similar to `filter()` except it reorders instead of filtering.  


```r
arrange(flights, year, month, day)
```

```
## # A tibble: 336,776 × 19
##     year month   day dep_time sched_dep_time
##    <int> <int> <int>    <int>          <int>
## 1   2013     1     1      517            515
## 2   2013     1     1      533            529
## 3   2013     1     1      542            540
## 4   2013     1     1      544            545
## 5   2013     1     1      554            600
## 6   2013     1     1      554            558
## 7   2013     1     1      555            600
## 8   2013     1     1      557            600
## 9   2013     1     1      557            600
## 10  2013     1     1      558            600
## # ... with 336,766 more rows, and 14 more
## #   variables: dep_delay <dbl>, arr_time <int>,
## #   sched_arr_time <int>, arr_delay <dbl>,
## #   carrier <chr>, flight <int>, tailnum <chr>,
## #   origin <chr>, dest <chr>, air_time <dbl>,
## #   distance <dbl>, hour <dbl>, minute <dbl>,
## #   time_hour <dttm>
```
…
```r
flights[order(flights$year, flights$month, flights$day), ]
```


## Descending order: `desc()`


```r
arrange(flights, desc(arr_delay))
```

```
## # A tibble: 336,776 × 19
##     year month   day dep_time sched_dep_time
##    <int> <int> <int>    <int>          <int>
## 1   2013     1     9      641            900
## 2   2013     6    15     1432           1935
## 3   2013     1    10     1121           1635
## 4   2013     9    20     1139           1845
## 5   2013     7    22      845           1600
## 6   2013     4    10     1100           1900
## 7   2013     3    17     2321            810
## 8   2013     7    22     2257            759
## 9   2013    12     5      756           1700
## 10  2013     5     3     1133           2055
## # ... with 336,766 more rows, and 14 more
## #   variables: dep_delay <dbl>, arr_time <int>,
## #   sched_arr_time <int>, arr_delay <dbl>,
## #   carrier <chr>, flight <int>, tailnum <chr>,
## #   origin <chr>, dest <chr>, air_time <dbl>,
## #   distance <dbl>, hour <dbl>, minute <dbl>,
## #   time_hour <dttm>
```
…
## Mutate: Derive new variables

Adds columns with calculations based on other columns.


Average air speed (miles/hour):

```r
select(
  mutate(flights,ave_speed=distance/(air_time/60)),
  distance, air_time,ave_speed)
```

```
## # A tibble: 336,776 × 3
##    distance air_time ave_speed
##       <dbl>    <dbl>     <dbl>
## 1      1400      227  370.0441
## 2      1416      227  374.2731
## 3      1089      160  408.3750
## 4      1576      183  516.7213
## 5       762      116  394.1379
## 6       719      150  287.6000
## 7      1065      158  404.4304
## 8       229       53  259.2453
## 9       944      140  404.5714
## 10      733      138  318.6957
## # ... with 336,766 more rows
```
…
```
## Adding missing grouping variables: `year`, `month`, `day`
```

```
## Source: local data frame [49 x 5]
## Groups: year, month [11]
## 
##     year month   day      arr      dep
##    <int> <int> <int>    <dbl>    <dbl>
## 1   2013     1    16 34.24736 24.61287
## 2   2013     1    31 32.60285 28.65836
## 3   2013     2    11 36.29009 39.07360
## 4   2013     2    27 31.25249 37.76327
## 5   2013     3     8 85.86216 83.53692
## 6   2013     3    18 41.29189 30.11796
## 7   2013     4    10 38.41231 33.02368
## 8   2013     4    12 36.04814 34.83843
## 9   2013     4    18 36.02848 34.91536
## 10  2013     4    19 47.91170 46.12783
## # ... with 39 more rows
```
…
```
## Adding missing grouping variables: `year`, `month`, `day`
```

```
## Source: local data frame [49 x 5]
## Groups: year, month [11]
## 
##     year month   day      arr      dep
##    <int> <int> <int>    <dbl>    <dbl>
## 1   2013     1    16 34.24736 24.61287
## 2   2013     1    31 32.60285 28.65836
## 3   2013     2    11 36.29009 39.07360
## 4   2013     2    27 31.25249 37.76327
## 5   2013     3     8 85.86216 83.53692
## 6   2013     3    18 41.29189 30.11796
## 7   2013     4    10 38.41231 33.02368
## 8   2013     4    12 36.04814 34.83843
## 9   2013     4    18 36.02848 34.91536
## 10  2013     4    19 47.91170 46.12783
## # ... with 39 more rows
```
…
