…
### `select()` examples
Select only the `year`, `month`, and `day` columns:

```r
select(flights,year, month, day)
```

```
## # A tibble: 336,776 x 3
##     year month   day
##    <int> <int> <int>
##  1  2013     1     1
##  2  2013     1     1
##  3  2013     1     1
##  4  2013     1     1
##  5  2013     1     1
##  6  2013     1     1
##  7  2013     1     1
##  8  2013     1     1
##  9  2013     1     1
## 10  2013     1     1
## # ... with 336,766 more rows
```

### `select()` examples

Select everything _except_ the `tailnum`:

```r
select(flights,-tailnum)
```

```
## # A tibble: 336,776 x 18
##     year month   day dep_time sched_dep_time dep_delay arr_time
##    <int> <int> <int>    <int>          <int>     <dbl>    <int>
##  1  2013     1     1      517            515         2      830
##  2  2013     1     1      533            529         4      850
##  3  2013     1     1      542            540         2      923
##  4  2013     1     1      544            545        -1     1004
##  5  2013     1     1      554            600        -6      812
##  6  2013     1     1      554            558        -4      740
##  7  2013     1     1      555            600        -5      913
##  8  2013     1     1      557            600        -3      709
##  9  2013     1     1      557            600        -3      838
## 10  2013     1     1      558            600        -2      753
## # ... with 336,766 more rows, and 11 more variables: sched_arr_time <int>,
## #   arr_delay <dbl>, carrier <chr>, flight <int>, origin <chr>,
## #   dest <chr>, air_time <dbl>, distance <dbl>, hour <dbl>, minute <dbl>,
## #   time_hour <dttm>
```

Select all columns containing the string `"time"`:

```r
select(flights,contains("time"))
```

```
## # A tibble: 336,776 x 6
##    dep_time sched_dep_time arr_time sched_arr_time air_time
##       <int>          <int>    <int>          <int>    <dbl>
##  1      517            515      830            819      227
##  2      533            529      850            830      227
##  3      542            540      923            850      160
##  4      544            545     1004           1022      183
##  5      554            600      812            837      116
##  6      554            558      740            728      150
##  7      555            600      913            854      158
##  8      557            600      709            723       53
##  9      557            600      838            846      140
## 10      558            600      753            745      138
## # ... with 336,766 more rows, and 1 more variable: time_hour <dttm>
```

You can also rename columns with `select()`

```r
select(flights,year,carrier,destination=dest)
```

```
## # A tibble: 336,776 x 3
##     year carrier destination
##    <int> <chr>   <chr>      
##  1  2013 UA      IAH        
##  2  2013 UA      IAH        
##  3  2013 AA      MIA        
##  4  2013 B6      BQN        
##  5  2013 DL      ATL        
##  6  2013 UA      ORD        
##  7  2013 B6      FLL        
##  8  2013 EV      IAD        
##  9  2013 B6      MCO        
## 10  2013 AA      ORD        
## # ... with 336,766 more rows
```

## `filter()` observations

Filter all flights that departed on on January 1st:


```r
filter(flights, month == 1, day == 1)
```

```
## # A tibble: 842 x 19
##     year month   day dep_time sched_dep_time dep_delay arr_time
##    <int> <int> <int>    <int>          <int>     <dbl>    <int>
##  1  2013     1     1      517            515         2      830
##  2  2013     1     1      533            529         4      850
##  3  2013     1     1      542            540         2      923
##  4  2013     1     1      544            545        -1     1004
##  5  2013     1     1      554            600        -6      812
##  6  2013     1     1      554            558        -4      740
##  7  2013     1     1      555            600        -5      913
##  8  2013     1     1      557            600        -3      709
##  9  2013     1     1      557            600        -3      838
## 10  2013     1     1      558            600        -2      753
## # ... with 832 more rows, and 12 more variables: sched_arr_time <int>,
## #   arr_delay <dbl>, carrier <chr>, flight <int>, tailnum <chr>,
## #   origin <chr>, dest <chr>, air_time <dbl>, distance <dbl>, hour <dbl>,
## #   minute <dbl>, time_hour <dttm>
```


## _Base_ R method
This is equivalent to the more verbose code in base R:


```r
flights[flights$month == 1 & flights$day == 1, ]
```

```
## # A tibble: 842 x 19
##     year month   day dep_time sched_dep_time dep_delay arr_time
##    <int> <int> <int>    <int>          <int>     <dbl>    <int>
##  1  2013     1     1      517            515         2      830
##  2  2013     1     1      533            529         4      850
##  3  2013     1     1      542            540         2      923
##  4  2013     1     1      544            545        -1     1004
##  5  2013     1     1      554            600        -6      812
##  6  2013     1     1      554            558        -4      740
##  7  2013     1     1      555            600        -5      913
##  8  2013     1     1      557            600        -3      709
##  9  2013     1     1      557            600        -3      838
## 10  2013     1     1      558            600        -2      753
## # ... with 832 more rows, and 12 more variables: sched_arr_time <int>,
## #   arr_delay <dbl>, carrier <chr>, flight <int>, tailnum <chr>,
## #   origin <chr>, dest <chr>, air_time <dbl>, distance <dbl>, hour <dbl>,
## #   minute <dbl>, time_hour <dttm>
```
…
<div class="well">
Filter the `flights` data set to keep only evening flights (`dep_time` after 1600) in June.

<button data-toggle="collapse" class="btn btn-primary btn-sm round" data-target="#demo1">Show Solution</button>
<div id="demo1" class="collapse">


```r
filter(flights,dep_time>1600,month==6)
```

```
## # A tibble: 10,117 x 19
##     year month   day dep_time sched_dep_time dep_delay arr_time
##    <int> <int> <int>    <int>          <int>     <dbl>    <int>
##  1  2013     6     1     1602           1505        57     1721
##  2  2013     6     1     1602           1605        -3     1824
##  3  2013     6     1     1602           1610        -8     1748
##  4  2013     6     1     1603           1610        -7     1839
##  5  2013     6     1     1603           1545        18     1726
##  6  2013     6     1     1605           1608        -3     1742
##  7  2013     6     1     1605           1600         5     1801
##  8  2013     6     1     1605           1614        -9     1801
##  9  2013     6     1     1608           1600         8     1807
## 10  2013     6     1     1609           1615        -6     1817
## # ... with 10,107 more rows, and 12 more variables: sched_arr_time <int>,
## #   arr_delay <dbl>, carrier <chr>, flight <int>, tailnum <chr>,
## #   origin <chr>, dest <chr>, air_time <dbl>, distance <dbl>, hour <dbl>,
## #   minute <dbl>, time_hour <dttm>
```
…
## Other _boolean_ expressions
`filter()` is similar to `subset()` except it handles any number of filtering conditions joined together with `&`. 

You can also use other boolean operators, such as _OR_ ("|"):

```r
filter(flights, month == 1 | month == 2)
```

```
## # A tibble: 51,955 x 19
##     year month   day dep_time sched_dep_time dep_delay arr_time
##    <int> <int> <int>    <int>          <int>     <dbl>    <int>
##  1  2013     1     1      517            515         2      830
##  2  2013     1     1      533            529         4      850
##  3  2013     1     1      542            540         2      923
##  4  2013     1     1      544            545        -1     1004
##  5  2013     1     1      554            600        -6      812
##  6  2013     1     1      554            558        -4      740
##  7  2013     1     1      555            600        -5      913
##  8  2013     1     1      557            600        -3      709
##  9  2013     1     1      557            600        -3      838
## 10  2013     1     1      558            600        -2      753
## # ... with 51,945 more rows, and 12 more variables: sched_arr_time <int>,
## #   arr_delay <dbl>, carrier <chr>, flight <int>, tailnum <chr>,
## #   origin <chr>, dest <chr>, air_time <dbl>, distance <dbl>, hour <dbl>,
## #   minute <dbl>, time_hour <dttm>
```

<div class="well">
Filter the `flights` data set to keep only flights where the `distance` is greater than 1000 OR the `air_time` is more than 100

<button data-toggle="collapse" class="btn btn-primary btn-sm round" data-target="#demo2">Show Solution</button>
<div id="demo2" class="collapse"> <br>


```r
filter(flights,distance>1000|air_time>100)
```

```
## # A tibble: 222,479 x 19
##     year month   day dep_time sched_dep_time dep_delay arr_time
##    <int> <int> <int>    <int>          <int>     <dbl>    <int>
##  1  2013     1     1      517            515         2      830
##  2  2013     1     1      533            529         4      850
##  3  2013     1     1      542            540         2      923
##  4  2013     1     1      544            545        -1     1004
##  5  2013     1     1      554            600        -6      812
##  6  2013     1     1      554            558        -4      740
##  7  2013     1     1      555            600        -5      913
##  8  2013     1     1      557            600        -3      838
##  9  2013     1     1      558            600        -2      753
## 10  2013     1     1      558            600        -2      849
## # ... with 222,469 more rows, and 12 more variables: sched_arr_time <int>,
## #   arr_delay <dbl>, carrier <chr>, flight <int>, tailnum <chr>,
## #   origin <chr>, dest <chr>, air_time <dbl>, distance <dbl>, hour <dbl>,
## #   minute <dbl>, time_hour <dttm>
```
…
## `arrange()` rows

`arrange()` is similar to `filter()` except it reorders instead of filtering.  


```r
arrange(flights, year, month, day)
```

```
## # A tibble: 336,776 x 19
##     year month   day dep_time sched_dep_time dep_delay arr_time
##    <int> <int> <int>    <int>          <int>     <dbl>    <int>
##  1  2013     1     1      517            515         2      830
##  2  2013     1     1      533            529         4      850
##  3  2013     1     1      542            540         2      923
##  4  2013     1     1      544            545        -1     1004
##  5  2013     1     1      554            600        -6      812
##  6  2013     1     1      554            558        -4      740
##  7  2013     1     1      555            600        -5      913
##  8  2013     1     1      557            600        -3      709
##  9  2013     1     1      557            600        -3      838
## 10  2013     1     1      558            600        -2      753
## # ... with 336,766 more rows, and 12 more variables: sched_arr_time <int>,
## #   arr_delay <dbl>, carrier <chr>, flight <int>, tailnum <chr>,
## #   origin <chr>, dest <chr>, air_time <dbl>, distance <dbl>, hour <dbl>,
## #   minute <dbl>, time_hour <dttm>
```
…
```r
flights[order(flights$year, flights$month, flights$day), ]
```


## Descending order: `desc()`


```r
arrange(flights, desc(arr_delay))
```

```
## # A tibble: 336,776 x 19
##     year month   day dep_time sched_dep_time dep_delay arr_time
##    <int> <int> <int>    <int>          <int>     <dbl>    <int>
##  1  2013     1     9      641            900      1301     1242
##  2  2013     6    15     1432           1935      1137     1607
##  3  2013     1    10     1121           1635      1126     1239
##  4  2013     9    20     1139           1845      1014     1457
##  5  2013     7    22      845           1600      1005     1044
##  6  2013     4    10     1100           1900       960     1342
##  7  2013     3    17     2321            810       911      135
##  8  2013     7    22     2257            759       898      121
##  9  2013    12     5      756           1700       896     1058
## 10  2013     5     3     1133           2055       878     1250
## # ... with 336,766 more rows, and 12 more variables: sched_arr_time <int>,
## #   arr_delay <dbl>, carrier <chr>, flight <int>, tailnum <chr>,
## #   origin <chr>, dest <chr>, air_time <dbl>, distance <dbl>, hour <dbl>,
## #   minute <dbl>, time_hour <dttm>
```
…
## Mutate: Derive new variables

Adds columns with calculations based on other columns.


Average air speed (miles/hour):

```r
mutate(flights,ave_speed=distance/(air_time/60))%>%
  select(distance, air_time,ave_speed)
```

```
## # A tibble: 336,776 x 3
##    distance air_time ave_speed
##       <dbl>    <dbl>     <dbl>
##  1     1400      227      370.
##  2     1416      227      374.
##  3     1089      160      408.
##  4     1576      183      517.
##  5      762      116      394.
##  6      719      150      288.
##  7     1065      158      404.
##  8      229       53      259.
##  9      944      140      405.
## 10      733      138      319.
## # ... with 336,766 more rows
```
…
