Spatial data
…
print(worldbank_df, n=3)

## # A tibble: 177 x 7
##   name        iso_a2    HDI urban_pop unemployment pop_growth literacy
##   <chr>       <chr>   <dbl>     <dbl>        <dbl>      <dbl>    <dbl>
## 1 Afghanistan AF     NA       8609463         NA        3.18      NA  
## 2 Angola      AO      0.504  11649562         NA        3.49      66.0
## 3 Albania     AL     NA       1629715         17.5     -0.207     NA  
## # ... with 174 more rows
…
Non-spatial operations

world_cont = world %>% 
        group_by(continent) %>% 
        summarize(pop_sum = sum(pop, na.rm = TRUE))%>%
  arrange(desc(pop_sum))

## Simple feature collection with 8 features and 2 fields
## geometry type:  GEOMETRY
## dimension:      XY
## bbox:           xmin: -180 ymin: -90 xmax: 180 ymax: 83.64513
## epsg (SRID):    4326
## proj4string:    +proj=longlat +datum=WGS84 +no_defs
## # A tibble: 8 x 3
##   continent   pop_sum                                                 geom
##   <fct>         <dbl>                                   <MULTIPOLYGON [°]>
## 1 Asia         4.31e9 (((120.295 -10.25865, 118.9678 -9.557969, 119.9003 …
## 2 Africa       1.15e9 (((49.54352 -12.46983, 49.80898 -12.89528, 50.05651…
## 3 Europe       6.69e8 (((-51.6578 4.156232, -52.24934 3.241094, -52.55642…
## # ... with 5 more rows
…
